{"data":[{"id":"0c172e54-5604-4426-8480-7f63ad529ef5","alert_id":"d3acf68d-158c-44a8-b3fd-0aff0b530418","alert_name":"untracked","alert_text":"Untracked for 50h 58m","status":"ACTIVE","severity":"CRITICAL","resolution_tat_minutes":3058.7837833333333,"computed_confidence_score":31.6,"performance_summary":"Incident is currently active and being monitored.","company_name":"ULTRATECH CEMENT LIMITED","route":"6415-1503-DAVANGERE - STO to KS49-SAVALANGA.","location":"Unknown location (no pings received)","alert_generated_at":"2026-01-31T09:09:13","alert_updated_at":"2026-02-02T12:08:00.027000","is_auto_resolved":false},{"id":"060eee59-84f9-4f05-9e37-b538d38622e5","alert_id":"a37a4b1c-cb84-4535-b1b1-a231acda5033","alert_name":"long_stoppage","alert_text":"Stoppage for 7h 16m","status":"RESOLVED","severity":"CRITICAL","resolution_tat_minutes":2444.87455,"computed_confidence_score":56.6,"performance_summary":"Incident required manual intervention and exceeded SLA (2445 min vs 240 min threshold).","company_name":"ULTRATECH CEMENT LIMITED","route":"6415-1507-UTCL BELLARY-2-STO to KI13-ITIGI","location":"194, Ashok Nagar, Rajeshwari nagar, Ballari, Karnataka 583103, India","alert_generated_at":"2026-01-19T19:21:16","alert_updated_at":"2026-01-21T12:06:08.473000","is_auto_resolved":false},{"id":"06c65554-9f6d-401e-9375-ecde5f291d71","alert_id":"d7c2dbda-5344-4a1f-8312-7c2a83b3718a","alert_name":"untracked","alert_text":"Untracked for 50h 1m","status":"ACTIVE","severity":"CRITICAL","resolution_tat_minutes":3001.8504833333336,"computed_confidence_score":31.7,"performance_summary":"Incident is currently active and being monitored.","company_name":"ULTRATECH CEMENT LIMITED","route":"6415-1504-CHITRADURGA - STO to KN62-NAYAKANHATTI","location":"Unknown location (no pings received)","alert_generated_at":"2026-01-31T10:06:12","alert_updated_at":"2026-02-02T12:08:03.029000","is_auto_resolved":false},{"id":"8efa10e8-cc75-4ed5-91a6-3bde6c5d5340","alert_id":"5e0cf64b-0a4e-4b49-b32c-5ac9c626a094","alert_name":"long_stoppage","alert_text":"Stoppage for 0m","status":"ACTIVE","severity":"MEDIUM","resolution_tat_minutes":244.15236666666667,"computed_confidence_score":75.6,"performance_summary":"Incident still active. Duration: 245 minutes. Monitoring in progress.","company_name":"ULTRATECH CEMENT LIMITED","route":"6415-1507-UTCL BELLARY-2-STO to KK66-KAMALAPURA","location":"7MRQ+CX Sankalapuram, Karnataka, India","alert_generated_at":"2026-01-24T13:00:02","alert_updated_at":"2026-01-24T17:04:11.142000","is_auto_resolved":false},{"id":"9a3022f0-8111-4a1f-9d59-1228eee3d315","alert_id":"2a80cee9-b290-45f1-b3d3-bdbf7a806b1a","alert_name":"untracked","alert_text":"Untracked for 60m","status":"ACTIVE","severity":"CRITICAL","resolution_tat_minutes":60.00005,"computed_confidence_score":53.7,"performance_summary":"Incident is currently active and being monitored.","company_name":"ULTRATECH CEMENT LIMITED","route":"6415-15T1-DAVANGERE-T1-STO to KS49-SAVALANGA.","location":"Unknown location (no pings received)","alert_generated_at":"2026-01-28T18:51:14","alert_updated_at":"2026-01-28T19:51:14.003000","is_auto_resolved":false},{"id":"e0ed9ff5-a14a-491f-bb25-8ebce8813bae","alert_id":"530b4f88-0cca-4b2c-91dc-3e752882e205","alert_name":"long_stoppage","alert_text":"Stoppage for 1h 30m","status":"AUTO_RESOLVED","severity":"LOW","resolution_tat_minutes":3105.598833333333,"computed_confidence_score":70.9,"performance_summary":"Agent auto-resolved long stoppage but exceeded SLA (3106 min vs 240 min threshold).","company_name":"JSWOne Distribution Limited","route":"SK Depot Mumbai to Global Steel - Chennai","location":"Panvel, Maharashtra","alert_generated_at":"2025-12-07T02:31:28","alert_updated_at":"2025-12-09T06:17:03.930000","is_auto_resolved":true},{"id":"0673daa0-f431-4669-ad10-4d585890dba8","alert_id":"1dfc37f1-b233-4ee4-820a-0162d1900eb0","alert_name":"long_stoppage","alert_text":"Stoppage for 30m","status":"ACTIVE","severity":"MEDIUM","resolution_tat_minutes":77.97246666666666,"computed_confidence_score":76.1,"performance_summary":"Incident still active. Duration: 30 minutes. Monitoring in progress.","company_name":"ULTRATECH CEMENT LIMITED","route":"6415-1504-CHITRADURGA - STO to KHE2-HOLALKARE","location":"#10 Amoga centre, Basaweshwara Talkies Rd, Vijayanagar, Chitradurga, Karnataka 577501, India","alert_generated_at":"2026-01-24T15:44:39","alert_updated_at":"2026-01-24T17:02:37.348000","is_auto_resolved":false},{"id":"ca5697ca-0eba-424d-a02d-5bce41ffd69e","alert_id":"bb8ecfa6-df67-4770-b63f-58c30441d5eb","alert_name":"sta_breach","alert_text":"Delayed by 6 hrs 0 mins","status":"ACTIVE","severity":"CRITICAL","resolution_tat_minutes":340.93333333333334,"computed_confidence_score":37.5,"performance_summary":"Incident is currently active and being monitored.","company_name":"ULTRATECH CEMENT LIMITED","route":"6415-1504-CHITRADURGA - STO to KHH9-HOSADURGA","location":"37M4+PC2, Shivaganga, Karnataka 577526, India","alert_generated_at":"2026-01-30T13:35:02","alert_updated_at":"2026-01-30T19:15:58","is_auto_resolved":false},{"id":"d4778fba-460a-4137-b0e9-28b9ceb614ee","alert_id":"a2fc2d68-8a96-4879-adb8-534b47afda0b","alert_name":"tracking_interrupted","alert_text":"Tracking interrupted for 0m","status":"AUTO_RESOLVED","severity":"CRITICAL","resolution_tat_minutes":71.46726666666667,"computed_confidence_score":58.7,"performance_summary":"Agent auto-resolved tracking interrupted within SLA (71 min vs 180 min threshold).","company_name":"ULTRATECH CEMENT LIMITED","route":"6415-1504-CHITRADURGA - STO to KN62-NAYAKANHATTI","location":"69PR+76H, National Hwy Service Rd, Adarsha Nagar, Chitradurga, Karnataka 577502, India","alert_generated_at":"2026-01-28T19:16:22","alert_updated_at":"2026-01-28T20:27:50.036000","is_auto_resolved":true},{"id":"4dd1ce71-9af1-4744-9a76-98131df24c7e","alert_id":"530b4f88-0cca-4b2c-91dc-3e752882e203","alert_name":"long_stoppage","alert_text":"Stoppage for 1h 30m","status":"AUTO_RESOLVED","severity":"MEDIUM","resolution_tat_minutes":3105.598833333333,"computed_confidence_score":69.3,"performance_summary":"Agent auto-resolved long stoppage but exceeded SLA (3106 min vs 240 min threshold).","company_name":"JSWOne Distribution Limited","route":"SK Depot Mumbai to Global Steel - Chennai","location":"Panvel, Maharashtra","alert_generated_at":"2025-12-07T02:31:28","alert_updated_at":"2025-12-09T06:17:03.930000","is_auto_resolved":true},{"id":"9ec15c2c-4fb2-439a-bf48-e61313fa9c5b","alert_id":"64841f90-b9fb-44ef-9690-7bbd7dbe07fe","alert_name":"untracked","alert_text":"Untracked for 50h 1m","status":"ACTIVE","severity":"CRITICAL","resolution_tat_minutes":3001.898783333333,"computed_confidence_score":31.7,"performance_summary":"Incident is currently active and being monitored.","company_name":"ULTRATECH CEMENT LIMITED","route":"6415-1503-DAVANGERE - STO to KC21-CHANNAGIRI","location":"Unknown location (no pings received)","alert_generated_at":"2026-01-31T10:06:09","alert_updated_at":"2026-02-02T12:08:02.927000","is_auto_resolved":false},{"id":"1f8e1fea-5aee-413f-99a3-6f1706bb4d19","alert_id":"dd7df849-8fd1-4f06-99de-ed6914faa73c","alert_name":"untracked","alert_text":"Untracked for 67h 9m","status":"ACTIVE","severity":"CRITICAL","resolution_tat_minutes":4029.7667,"computed_confidence_score":30.9,"performance_summary":"Incident is currently active and being monitored.","company_name":"ULTRATECH CEMENT LIMITED","route":"6415-15T1-DAVANGERE-T1-STO to KG28-GANGUR","location":"Unknown location (no pings received)","alert_generated_at":"2026-01-30T17:51:07","alert_updated_at":"2026-02-02T13:00:53.002000","is_auto_resolved":false},{"id":"90e11083-a0d6-434e-a71a-7c57effc926e","alert_id":"530b4f88-0cca-4b2c-91dc-3e752882e001","alert_name":"long_stoppage","alert_text":"Stoppage for 1h 10m","status":"ACTIVE","severity":"MEDIUM","resolution_tat_minutes":3105.598833333333,"computed_confidence_score":60.0,"performance_summary":"Incident still active. Duration: 70 minutes. Monitoring in progress.","company_name":"JSWOne Distribution Limited","route":"Karwar Karnataka to Udupi, Karnataka","location":"Bhatkal Karnataka","alert_generated_at":"2025-12-07T02:31:28","alert_updated_at":"2025-12-09T06:17:03.930000","is_auto_resolved":false},{"id":"93e7e27c-38e2-4393-85b6-20b2747d218f","alert_id":"a30543d5-3f7c-47e4-a74c-a62d28ab27a8","alert_name":"long_stoppage","alert_text":"Stoppage for 2h 23m","status":"AUTO_RESOLVED","severity":"HIGH","resolution_tat_minutes":145.04276666666667,"computed_confidence_score":80.0,"performance_summary":"Agent auto-resolved long stoppage within SLA (145 min vs 240 min threshold).","company_name":"ULTRATECH CEMENT LIMITED","route":"6415-1507-UTCL BELLARY-2-STO to KHO9-HUVINAHADAGALLI","location":"44, near Hosapel, Hagaribommanahalli, Karnataka 583212, India","alert_generated_at":"2026-01-24T14:20:08","alert_updated_at":"2026-01-24T16:45:10.566000","is_auto_resolved":true},{"id":"9a0d231b-67a0-4fdb-8f23-711edda26bd4","alert_id":"efa13536-ab30-4e90-ab20-04038211fdde","alert_name":"long_stoppage","alert_text":"Stoppage for 0m","status":"AUTO_RESOLVED","severity":"MEDIUM","resolution_tat_minutes":2712.5189333333333,"computed_confidence_score":58.1,"performance_summary":"Agent auto-resolved long stoppage but exceeded SLA (2713 min vs 240 min threshold).","company_name":"ULTRATECH CEMENT LIMITED","route":"6415-1504-CHITRADURGA - STO to KSG4-SRIRAMPURA","location":"R5FW+48X, Bhagyapuri, Bhagapuri Baguru, Karnataka 577515, India","alert_generated_at":"2026-01-20T14:56:10","alert_updated_at":"2026-01-22T12:08:41.136000","is_auto_resolved":true}],"total":19299,"page":1,"page_size":15,"total_pages":1287}